%YAML 1.1
%TAG !u! tag:unity3d.com,2011:
--- !u!74 &7400000
AnimationClip:
  m_ObjectHideFlags: 0
  m_CorrespondingSourceObject: {fileID: 0}
  m_PrefabInternal: {fileID: 0}
  m_Name: Chomper_Idle
  serializedVersion: 6
  m_Legacy: 0
  m_Compressed: 0
  m_UseHighQualityCurve: 1
  m_RotationCurves: []
  m_CompressedRotationCurves: []
  m_EulerCurves: []
  m_PositionCurves: []
  m_ScaleCurves: []
  m_FloatCurves: []
  m_PPtrCurves:
  - curve:
    - time: 0
      value: {fileID: 21300000, guid: 41ee8205a421b1643824c4bd4c9b12b0, type: 3}
    - time: 0.083333336
      value: {fileID: 21300000, guid: f14aa10c3b4eb5b47860e729e2144c28, type: 3}
    - time: 0.15
      value: {fileID: 21300000, guid: a64b8a0d006d7b744b431b7cd3e59096, type: 3}
    - time: 0.25
      value: {fileID: 21300000, guid: 9e540f44219d80243bec5e2191787a0c, type: 3}
    - time: 0.33333334
      value: {fileID: 21300000, guid: c00121950f177f84092fd15f53c6ac66, type: 3}
    - time: 0.41666666
      value: {fileID: 21300000, guid: a25859ca3789d8a469bdd28a7d38daf2, type: 3}
    - time: 0.51666665
      value: {fileID: 21300000, guid: 26aea5a92fc76f648bb6522f06a0af58, type: 3}
    - time: 0.6
      value: {fileID: 21300000, guid: dae848790acd29544a951ec295aecf71, type: 3}
    - time: 0.68333334
      value: {fileID: 21300000, guid: 54bda8bcfb03f4345aafea5fe8271478, type: 3}
    - time: 0.76666665
      value: {fileID: 21300000, guid: f7636f79f29fce1469dfb21774e2b9d7, type: 3}
    - time: 0.85
      value: {fileID: 21300000, guid: 8ae4d681ab837c64796c0b72ee2584a0, type: 3}
    - time: 0.93333334
      value: {fileID: 21300000, guid: 22f7a3407a0448d438b85694136896c1, type: 3}
    - time: 1
      value: {fileID: 21300000, guid: d3ae7713c92135644b592b6979acbcfc, type: 3}
    - time: 1.1
      value: {fileID: 21300000, guid: c10ee680b45acec46af60e470d8c1930, type: 3}
    - time: 1.1833333
      value: {fileID: 21300000, guid: 8b571ba119e277145b0b92cd8fd42067, type: 3}
    - time: 1.3166667
      value: {fileID: 21300000, guid: 75a36c8886a27f54b833c41de3d11d24, type: 3}
    - time: 1.4
      value: {fileID: 21300000, guid: 312a5bfa1cd438440b81906da98959f9, type: 3}
    - time: 1.5
      value: {fileID: 21300000, guid: ae7c3e30807a6b14ea27333b478b7159, type: 3}
    - time: 1.5666667
      value: {fileID: 21300000, guid: c3bc842a37054c74bbc28d1f34c9847a, type: 3}
    - time: 1.65
      value: {fileID: 21300000, guid: 72182c4737bc6a242be25cda1beacbf4, type: 3}
    - time: 1.7333333
      value: {fileID: 21300000, guid: 02d12d99a7d9fc24fa0f9e2472426c7b, type: 3}
    - time: 1.8166667
      value: {fileID: 21300000, guid: 38c40e88299ccf042b83f09b5c3fd89b, type: 3}
    - time: 1.9
      value: {fileID: 21300000, guid: 6c05bc2e66e3ff342abf6c6128d48be8, type: 3}
    - time: 1.9833333
      value: {fileID: 21300000, guid: a003b41375f47594a9d754a4e55dc568, type: 3}
    - time: 2.0833333
      value: {fileID: 21300000, guid: a0740f7c6b0a21346b139ff42dc3cb17, type: 3}
    - time: 2.1666667
      value: {fileID: 21300000, guid: 6de87e9f00722e74d9fc96304b8f1a3d, type: 3}
    - time: 2.25
      value: {fileID: 21300000, guid: 6e07004c8f0965d4ab66a275e02b77a0, type: 3}
    - time: 2.35
      value: {fileID: 21300000, guid: c476985fb9af3ff4aafceffed501e06a, type: 3}
    - time: 2.4166667
      value: {fileID: 21300000, guid: a5cc0836f318e7d47928222a8a8c6bd5, type: 3}
    - time: 2.5
      value: {fileID: 21300000, guid: 030bf29ece336fa4590a0d4039eb5a00, type: 3}
    attribute: m_Sprite
    path: 
    classID: 212
    script: {fileID: 0}
  m_SampleRate: 60
  m_WrapMode: 0
  m_Bounds:
    m_Center: {x: 0, y: 0, z: 0}
    m_Extent: {x: 0, y: 0, z: 0}
  m_ClipBindingConstant:
    genericBindings:
    - serializedVersion: 2
      path: 0
      attribute: 0
      script: {fileID: 0}
      typeID: 212
      customType: 23
      isPPtrCurve: 1
    pptrCurveMapping:
    - {fileID: 21300000, guid: 41ee8205a421b1643824c4bd4c9b12b0, type: 3}
    - {fileID: 21300000, guid: f14aa10c3b4eb5b47860e729e2144c28, type: 3}
    - {fileID: 21300000, guid: a64b8a0d006d7b744b431b7cd3e59096, type: 3}
    - {fileID: 21300000, guid: 9e540f44219d80243bec5e2191787a0c, type: 3}
    - {fileID: 21300000, guid: c00121950f177f84092fd15f53c6ac66, type: 3}
    - {fileID: 21300000, guid: a25859ca3789d8a469bdd28a7d38daf2, type: 3}
    - {fileID: 21300000, guid: 26aea5a92fc76f648bb6522f06a0af58, type: 3}
    - {fileID: 21300000, guid: dae848790acd29544a951ec295aecf71, type: 3}
    - {fileID: 21300000, guid: 54bda8bcfb03f4345aafea5fe8271478, type: 3}
    - {fileID: 21300000, guid: f7636f79f29fce1469dfb21774e2b9d7, type: 3}
    - {fileID: 21300000, guid: 8ae4d681ab837c64796c0b72ee2584a0, type: 3}
    - {fileID: 21300000, guid: 22f7a3407a0448d438b85694136896c1, type: 3}
    - {fileID: 21300000, guid: d3ae7713c92135644b592b6979acbcfc, type: 3}
    - {fileID: 21300000, guid: c10ee680b45acec46af60e470d8c1930, type: 3}
    - {fileID: 21300000, guid: 8b571ba119e277145b0b92cd8fd42067, type: 3}
    - {fileID: 21300000, guid: 75a36c8886a27f54b833c41de3d11d24, type: 3}
    - {fileID: 21300000, guid: 312a5bfa1cd438440b81906da98959f9, type: 3}
    - {fileID: 21300000, guid: ae7c3e30807a6b14ea27333b478b7159, type: 3}
    - {fileID: 21300000, guid: c3bc842a37054c74bbc28d1f34c9847a, type: 3}
    - {fileID: 21300000, guid: 72182c4737bc6a242be25cda1beacbf4, type: 3}
    - {fileID: 21300000, guid: 02d12d99a7d9fc24fa0f9e2472426c7b, type: 3}
    - {fileID: 21300000, guid: 38c40e88299ccf042b83f09b5c3fd89b, type: 3}
    - {fileID: 21300000, guid: 6c05bc2e66e3ff342abf6c6128d48be8, type: 3}
    - {fileID: 21300000, guid: a003b41375f47594a9d754a4e55dc568, type: 3}
    - {fileID: 21300000, guid: a0740f7c6b0a21346b139ff42dc3cb17, type: 3}
    - {fileID: 21300000, guid: 6de87e9f00722e74d9fc96304b8f1a3d, type: 3}
    - {fileID: 21300000, guid: 6e07004c8f0965d4ab66a275e02b77a0, type: 3}
    - {fileID: 21300000, guid: c476985fb9af3ff4aafceffed501e06a, type: 3}
    - {fileID: 21300000, guid: a5cc0836f318e7d47928222a8a8c6bd5, type: 3}
    - {fileID: 21300000, guid: 030bf29ece336fa4590a0d4039eb5a00, type: 3}
  m_AnimationClipSettings:
    serializedVersion: 2
    m_AdditiveReferencePoseClip: {fileID: 0}
    m_AdditiveReferencePoseTime: 0
    m_StartTime: 0
    m_StopTime: 2.5166667
    m_OrientationOffsetY: 0
    m_Level: 0
    m_CycleOffset: 0
    m_HasAdditiveReferencePose: 0
    m_LoopTime: 1
    m_LoopBlend: 0
    m_LoopBlendOrientation: 0
    m_LoopBlendPositionY: 0
    m_LoopBlendPositionXZ: 0
    m_KeepOriginalOrientation: 0
    m_KeepOriginalPositionY: 1
    m_KeepOriginalPositionXZ: 0
    m_HeightFromFeet: 0
    m_Mirror: 0
  m_EditorCurves: []
  m_EulerEditorCurves: []
  m_HasGenericRootTransform: 0
  m_HasMotionFloatCurves: 0
  m_GenerateMotionCurves: 0
  m_Events: []
