%YAML 1.1
%TAG !u! tag:unity3d.com,2011:
--- !u!74 &7400000
AnimationClip:
  m_ObjectHideFlags: 0
  m_CorrespondingSourceObject: {fileID: 0}
  m_PrefabInternal: {fileID: 0}
  m_Name: Spitter_Attack
  serializedVersion: 6
  m_Legacy: 0
  m_Compressed: 0
  m_UseHighQualityCurve: 1
  m_RotationCurves: []
  m_CompressedRotationCurves: []
  m_EulerCurves: []
  m_PositionCurves: []
  m_ScaleCurves: []
  m_FloatCurves: []
  m_PPtrCurves:
  - curve:
    - time: 0
      value: {fileID: 21300000, guid: 4397030f9e6fb174ea079b632727d6f8, type: 3}
    - time: 0.033333335
      value: {fileID: 21300000, guid: 8adfa5608930ca2439e971779195e6d5, type: 3}
    - time: 0.06666667
      value: {fileID: 21300000, guid: 22953dd7b1cd95b4c9b5ddf9ac346037, type: 3}
    - time: 0.1
      value: {fileID: 21300000, guid: a2bf0c84810352345928f875e9722574, type: 3}
    - time: 0.13333334
      value: {fileID: 21300000, guid: ea75f18dd428482458ec6b1ea19ae71b, type: 3}
    - time: 0.18333334
      value: {fileID: 21300000, guid: 7c80543db09a5ec4cbf32e6ebd148879, type: 3}
    - time: 0.21666667
      value: {fileID: 21300000, guid: 18b6ab4d386ee2a4c8907ac47974884b, type: 3}
    - time: 0.25
      value: {fileID: 21300000, guid: 32dc08a018447f543976c94bf9491196, type: 3}
    - time: 0.28333333
      value: {fileID: 21300000, guid: ed03b24fc6d38dc4094f2bf8830f9df2, type: 3}
    - time: 0.31666666
      value: {fileID: 21300000, guid: 8d4804cf4e8b18246a0b9de4bb5f7887, type: 3}
    - time: 0.35
      value: {fileID: 21300000, guid: 10136a82fe95130409081e398fe24178, type: 3}
    - time: 0.38333333
      value: {fileID: 21300000, guid: 93dbc21f8c967174d9724ded23bcaa46, type: 3}
    - time: 0.41666666
      value: {fileID: 21300000, guid: dfc824d7751687d4ab5c25b40b7cfd9a, type: 3}
    - time: 0.46666667
      value: {fileID: 21300000, guid: 6016bca53a5cef1449c5464da0fd040c, type: 3}
    - time: 0.5
      value: {fileID: 21300000, guid: eadcf2981659a764c86bafbe6ce6f044, type: 3}
    - time: 0.53333336
      value: {fileID: 21300000, guid: d090c51669b3435449d4a2d4819b4261, type: 3}
    - time: 0.56666666
      value: {fileID: 21300000, guid: f09178b404a32834883bc08597522d22, type: 3}
    attribute: m_Sprite
    path: 
    classID: 212
    script: {fileID: 0}
  m_SampleRate: 60
  m_WrapMode: 0
  m_Bounds:
    m_Center: {x: 0, y: 0, z: 0}
    m_Extent: {x: 0, y: 0, z: 0}
  m_ClipBindingConstant:
    genericBindings:
    - serializedVersion: 2
      path: 0
      attribute: 0
      script: {fileID: 0}
      typeID: 212
      customType: 23
      isPPtrCurve: 1
    pptrCurveMapping:
    - {fileID: 21300000, guid: 4397030f9e6fb174ea079b632727d6f8, type: 3}
    - {fileID: 21300000, guid: 8adfa5608930ca2439e971779195e6d5, type: 3}
    - {fileID: 21300000, guid: 22953dd7b1cd95b4c9b5ddf9ac346037, type: 3}
    - {fileID: 21300000, guid: a2bf0c84810352345928f875e9722574, type: 3}
    - {fileID: 21300000, guid: ea75f18dd428482458ec6b1ea19ae71b, type: 3}
    - {fileID: 21300000, guid: 7c80543db09a5ec4cbf32e6ebd148879, type: 3}
    - {fileID: 21300000, guid: 18b6ab4d386ee2a4c8907ac47974884b, type: 3}
    - {fileID: 21300000, guid: 32dc08a018447f543976c94bf9491196, type: 3}
    - {fileID: 21300000, guid: ed03b24fc6d38dc4094f2bf8830f9df2, type: 3}
    - {fileID: 21300000, guid: 8d4804cf4e8b18246a0b9de4bb5f7887, type: 3}
    - {fileID: 21300000, guid: 10136a82fe95130409081e398fe24178, type: 3}
    - {fileID: 21300000, guid: 93dbc21f8c967174d9724ded23bcaa46, type: 3}
    - {fileID: 21300000, guid: dfc824d7751687d4ab5c25b40b7cfd9a, type: 3}
    - {fileID: 21300000, guid: 6016bca53a5cef1449c5464da0fd040c, type: 3}
    - {fileID: 21300000, guid: eadcf2981659a764c86bafbe6ce6f044, type: 3}
    - {fileID: 21300000, guid: d090c51669b3435449d4a2d4819b4261, type: 3}
    - {fileID: 21300000, guid: f09178b404a32834883bc08597522d22, type: 3}
  m_AnimationClipSettings:
    serializedVersion: 2
    m_AdditiveReferencePoseClip: {fileID: 0}
    m_AdditiveReferencePoseTime: 0
    m_StartTime: 0
    m_StopTime: 0.5833333
    m_OrientationOffsetY: 0
    m_Level: 0
    m_CycleOffset: 0
    m_HasAdditiveReferencePose: 0
    m_LoopTime: 1
    m_LoopBlend: 0
    m_LoopBlendOrientation: 0
    m_LoopBlendPositionY: 0
    m_LoopBlendPositionXZ: 0
    m_KeepOriginalOrientation: 0
    m_KeepOriginalPositionY: 1
    m_KeepOriginalPositionXZ: 0
    m_HeightFromFeet: 0
    m_Mirror: 0
  m_EditorCurves: []
  m_EulerEditorCurves: []
  m_HasGenericRootTransform: 0
  m_HasMotionFloatCurves: 0
  m_GenerateMotionCurves: 0
  m_Events: []
